…
  filter(str_detect(iyr, "^\\d{4}$") & btwn(as.numeric(iyr), 2010, 2020)) %>%
  filter(str_detect(eyr, "^\\d{4}$") & btwn(as.numeric(eyr), 2020, 2030)) %>%
  # Height
  filter(str_detect(hgt, "\\d+(cm|in)"))%>%
  filter(ifelse(str_detect(hgt, "cm"), 
                btwn(as.numeric(str_extract(hgt, "\\d+")), 150, 193),
                btwn(as.numeric(str_extract(hgt, "\\d+")), 59, 76))) %>%
  # Colors
  filter(str_detect(hcl, "#[[0-9a-f]]{6}")) %>%
  filter(ecl %in% c("amb", "blu", "brn", "gry", "grn", "hzl", "oth")) %>%
  # Passport ID
  filter(str_detect(str_pad(pid, "0", 9, side = "right"), "^\\d{9}$"))
```

    ## # A tibble: 114 x 9
    ##    hcl     ecl   iyr   pid       hgt   eyr   byr   cid   `NA` 
    ##    <chr>   <chr> <chr> <chr>     <chr> <chr> <chr> <chr> <chr>
    ##  1 #6b5442 brn   2019  637485594 171cm 2021  1986  <NA>  <NA> 
    ##  2 #18171d hzl   2016  751161201 184cm 2024  1992  <NA>  <NA> 
    ##  3 #b6652a blu   2016  313406514 191cm 2021  1938  <NA>  <NA> 
    ##  4 #623a2f brn   2019  145249653 167cm 2021  1991  <NA>  <NA> 
    ##  5 #fffffd hzl   2012  912552538 160cm 2023  1946  159   <NA> 
    ##  6 #18171d amb   2015  782818257 72in  2026  1952  59    <NA> 
    ##  7 #602927 amb   2018  783160698 173cm 2026  1986  96    <NA> 
    ##  8 #a97842 hzl   2011  912273414 171cm 2030  1960  199   <NA> 
    ##  9 #ceb3a1 amb   2013  567057004 156cm 2029  1942  116   <NA> 
    ## 10 #888785 blu   2012  028571975 160cm 2029  1933  <NA>  <NA> 
    ## # … with 104 more rows
…
