…
## Task 1

``` r
tree %>%
  select(contains("containers")) %>%
  filter_at(vars(contains("containers")), any_vars(str_detect(., "shiny gold"))) %>%
  distinct(containers_1) %>%
  filter(str_detect(containers_1, "shiny gold", negate = T))
```

    ## # A tibble: 370 x 1
    ##    containers_1     
    ##    <chr>            
    ##  1 "drab tan "      
    ##  2 "vibrant lime "  
    ##  3 "pale lime "     
    ##  4 "dull gray "     
    ##  5 "light fuchsia " 
    ##  6 "drab gold "     
    ##  7 "striped orange "
    ##  8 "shiny violet "  
    ##  9 "dotted lime "   
    ## 10 "drab magenta "  
    ## # … with 360 more rows
…
